[
  {
    "Name": "Chicken",
    "Price": 20
  },
  {
    "Name": "Tuna",
    "Price": 25
  },
  {
    "Name": "Potatoes",
    "Price": 3
  },
  {
    "Name": "Asparagus",
    "Price": 50
  },
  {
    "Name": "Milk",
    "Price": 5
  },
  {
    "Name": "Honey",
    "Price": 15
  },
  {
    "Name": "Paprika",
    "Price": 4
  },
  {
    "Name": "Garlic",
    "Price": 3
  },
  {
    "Name": "Water",
    "Price": 1
  },
  {
    "Name": "Lemon",
    "Price": 2
  },
  {
    "Name": "Tomatoes",
    "Price": 4
  },
  {
    "Name": "Pickles",
    "Price": 2
  },
  {
    "Name": "Feta",
    "Price": 7
  },
  {
    "Name": "Vinegar",
    "Price": 1
  },
  {
    "Name": "Rice",
    "Price": 2
  },
  {
    "Name": "Chocolate",
    "Price": 5
  },
  {
    "Name": "Soy",
    "Price": 0
  },
  {
    "Name": "Olives",
    "Price": 0
  }
]